Library\Bee\artifacts\mvdfrm\Unity.Services.Core.Internal.ref.dll_A02B3542C15F550A.mvfrm
Library\Bee\artifacts\mvdfrm\Unity.Services.Core.ref.dll_131AC9C5EC6E6517.mvfrm
Library\Bee\artifacts\mvdfrm\UnityEditor.UI.ref.dll_4C98D3F7040CD4F5.mvfrm
Library\Bee\artifacts\mvdfrm\UnityEngine.UI.ref.dll_08FEAA520A2EFD60.mvfrm
Library\Bee\artifacts\mvdfrm\Unity.Burst.Cecil.dll_339AF8348B366BC5.mvfrm
Library\Bee\artifacts\mvdfrm\Unity.Burst.Cecil.Mdb.dll_21FC241569ADF842.mvfrm
Library\Bee\artifacts\mvdfrm\Unity.Burst.Cecil.Pdb.dll_394E9C84E862F9C5.mvfrm
Library\Bee\artifacts\mvdfrm\Unity.Burst.Cecil.Rocks.dll_80F4A689B10D9485.mvfrm
Library\Bee\artifacts\mvdfrm\Unity.Burst.Unsafe.dll_3FADBF01C741963E.mvfrm
Library\Bee\artifacts\mvdfrm\Unity.Plastic.Antlr3.Runtime.dll_C555F639E9B43B6A.mvfrm
Library\Bee\artifacts\mvdfrm\Unity.Plastic.Newtonsoft.Json.dll_7B4DBA26826A4E2B.mvfrm
Library\Bee\artifacts\mvdfrm\Unity.VisualScripting.IonicZip.dll_EA9CAC5415C586E5.mvfrm
Library\Bee\artifacts\mvdfrm\Unity.VisualScripting.YamlDotNet.dll_0FCABD489963AC27.mvfrm
Library\Bee\artifacts\mvdfrm\Unity.VisualScripting.TextureAssets.dll_A6E8E69C5A310A1F.mvfrm
Library\Bee\artifacts\mvdfrm\Unity.VisualScripting.Antlr3.Runtime.dll_C137E429CA2CBC46.mvfrm
Library\Bee\artifacts\mvdfrm\UnityEditor.Graphs.dll_EC9596329DCF3C23.mvfrm
Library\Bee\artifacts\mvdfrm\UnityEditor.CoreModule.dll_69A5BD848BB0E2F1.mvfrm
Library\Bee\artifacts\mvdfrm\UnityEditor.DeviceSimulatorModule.dll_7B2A224330AB14A0.mvfrm
Library\Bee\artifacts\mvdfrm\UnityEditor.DiagnosticsModule.dll_4F0374580BD51EEE.mvfrm
Library\Bee\artifacts\mvdfrm\UnityEditor.dll_EF13F1B15A92F3D4.mvfrm
Library\Bee\artifacts\mvdfrm\UnityEditor.GraphViewModule.dll_75A6C051F630B105.mvfrm
Library\Bee\artifacts\mvdfrm\UnityEditor.PackageManagerUIModule.dll_7A77FFA7C2575D0D.mvfrm
Library\Bee\artifacts\mvdfrm\UnityEditor.QuickSearchModule.dll_DA12F56564AC1B47.mvfrm
Library\Bee\artifacts\mvdfrm\UnityEditor.SceneTemplateModule.dll_6CD5CB32316F98A8.mvfrm
Library\Bee\artifacts\mvdfrm\UnityEditor.TextCoreFontEngineModule.dll_DB73EE4E632DD14F.mvfrm
Library\Bee\artifacts\mvdfrm\UnityEditor.TextCoreTextEngineModule.dll_235C24BFF2B18A6D.mvfrm
Library\Bee\artifacts\mvdfrm\UnityEditor.UIBuilderModule.dll_CA2F6D6E68E92A39.mvfrm
Library\Bee\artifacts\mvdfrm\UnityEditor.UIElementsModule.dll_1A4F12C3DE1D268D.mvfrm
Library\Bee\artifacts\mvdfrm\UnityEditor.UIElementsSamplesModule.dll_182D65FA15AE02B0.mvfrm
Library\Bee\artifacts\mvdfrm\UnityEditor.UIServiceModule.dll_03217ED152207A53.mvfrm
Library\Bee\artifacts\mvdfrm\UnityEditor.UnityConnectModule.dll_D67D9EB668DE0A27.mvfrm
Library\Bee\artifacts\mvdfrm\UnityEngine.AccessibilityModule.dll_9F7B36C931E5C045.mvfrm
Library\Bee\artifacts\mvdfrm\UnityEngine.AIModule.dll_5B4C7DAC03DC3D25.mvfrm
Library\Bee\artifacts\mvdfrm\UnityEngine.AndroidJNIModule.dll_9897FB97273C9563.mvfrm
Library\Bee\artifacts\mvdfrm\UnityEngine.AnimationModule.dll_442C3C7AD08D85AB.mvfrm
Library\Bee\artifacts\mvdfrm\UnityEngine.ARModule.dll_14BF42AF60F99BEE.mvfrm
Library\Bee\artifacts\mvdfrm\UnityEngine.AssetBundleModule.dll_1DFC2856C712D039.mvfrm
Library\Bee\artifacts\mvdfrm\UnityEngine.AudioModule.dll_972BDEEAB5D903DD.mvfrm
Library\Bee\artifacts\mvdfrm\UnityEngine.ClothModule.dll_FE143BE58FF5E2C1.mvfrm
Library\Bee\artifacts\mvdfrm\UnityEngine.ClusterInputModule.dll_561A13CC1A65DCED.mvfrm
Library\Bee\artifacts\mvdfrm\UnityEngine.ClusterRendererModule.dll_80D6E4B4A0662224.mvfrm
Library\Bee\artifacts\mvdfrm\UnityEngine.CoreModule.dll_8CC690D733B64E1C.mvfrm
Library\Bee\artifacts\mvdfrm\UnityEngine.CrashReportingModule.dll_589FB9174C68CB34.mvfrm
Library\Bee\artifacts\mvdfrm\UnityEngine.DirectorModule.dll_2157E026A8254339.mvfrm
Library\Bee\artifacts\mvdfrm\UnityEngine.dll_21B83889B90680B9.mvfrm
Library\Bee\artifacts\mvdfrm\UnityEngine.DSPGraphModule.dll_26A941901A86145A.mvfrm
Library\Bee\artifacts\mvdfrm\UnityEngine.GameCenterModule.dll_C2E545B1ED7D8654.mvfrm
Library\Bee\artifacts\mvdfrm\UnityEngine.GIModule.dll_F388C6B99F8B253F.mvfrm
Library\Bee\artifacts\mvdfrm\UnityEngine.GridModule.dll_6A37ACC54C0AE413.mvfrm
Library\Bee\artifacts\mvdfrm\UnityEngine.HotReloadModule.dll_C574FA80ABC0A12D.mvfrm
Library\Bee\artifacts\mvdfrm\UnityEngine.ImageConversionModule.dll_ECC8E265228ADA18.mvfrm
Library\Bee\artifacts\mvdfrm\UnityEngine.IMGUIModule.dll_CF8B7E517C0A97BE.mvfrm
Library\Bee\artifacts\mvdfrm\UnityEngine.InputLegacyModule.dll_AF4143755F04862A.mvfrm
Library\Bee\artifacts\mvdfrm\UnityEngine.InputModule.dll_FDA1A69B2C112881.mvfrm
Library\Bee\artifacts\mvdfrm\UnityEngine.JSONSerializeModule.dll_FF92C005312120CF.mvfrm
Library\Bee\artifacts\mvdfrm\UnityEngine.LocalizationModule.dll_9466DE1EB1E1CFE6.mvfrm
Library\Bee\artifacts\mvdfrm\UnityEngine.ParticleSystemModule.dll_ABB20263BA7A56C2.mvfrm
Library\Bee\artifacts\mvdfrm\UnityEngine.PerformanceReportingModule.dll_6D213F01A1EAFEDB.mvfrm
Library\Bee\artifacts\mvdfrm\UnityEngine.Physics2DModule.dll_90D22C6B718A7D40.mvfrm
Library\Bee\artifacts\mvdfrm\UnityEngine.PhysicsModule.dll_FB0797EE1A8D7C4E.mvfrm
Library\Bee\artifacts\mvdfrm\UnityEngine.ProfilerModule.dll_539E195D417ECA46.mvfrm
Library\Bee\artifacts\mvdfrm\UnityEngine.RuntimeInitializeOnLoadManagerInitializerModule.dll_B1C7C1C2CCBA6E09.mvfrm
Library\Bee\artifacts\mvdfrm\UnityEngine.ScreenCaptureModule.dll_197A6D8A458D4D31.mvfrm
Library\Bee\artifacts\mvdfrm\UnityEngine.SharedInternalsModule.dll_70DA213A99B8D568.mvfrm
Library\Bee\artifacts\mvdfrm\UnityEngine.SpriteMaskModule.dll_AC11B8420EED1BCE.mvfrm
Library\Bee\artifacts\mvdfrm\UnityEngine.SpriteShapeModule.dll_375D55B17CB50843.mvfrm
Library\Bee\artifacts\mvdfrm\UnityEngine.StreamingModule.dll_F8C129CB20153CE9.mvfrm
Library\Bee\artifacts\mvdfrm\UnityEngine.SubstanceModule.dll_D56C3E146B683AF7.mvfrm
Library\Bee\artifacts\mvdfrm\UnityEngine.SubsystemsModule.dll_16BF1EA3DD3503E1.mvfrm
Library\Bee\artifacts\mvdfrm\UnityEngine.TerrainModule.dll_154E135CF04BC53C.mvfrm
Library\Bee\artifacts\mvdfrm\UnityEngine.TerrainPhysicsModule.dll_AC2CAB36D3BD514F.mvfrm
Library\Bee\artifacts\mvdfrm\UnityEngine.TextCoreFontEngineModule.dll_59D369A1762B901A.mvfrm
Library\Bee\artifacts\mvdfrm\UnityEngine.TextCoreTextEngineModule.dll_A1BBA01305AF4938.mvfrm
Library\Bee\artifacts\mvdfrm\UnityEngine.TextRenderingModule.dll_42B9DF94FCC4CD26.mvfrm
Library\Bee\artifacts\mvdfrm\UnityEngine.TilemapModule.dll_B44A7ADE0808A645.mvfrm
Library\Bee\artifacts\mvdfrm\UnityEngine.TLSModule.dll_3C0A14EABD9309A2.mvfrm
Library\Bee\artifacts\mvdfrm\UnityEngine.UIElementsModule.dll_1AFD800BE0613FD8.mvfrm
Library\Bee\artifacts\mvdfrm\UnityEngine.UIElementsNativeModule.dll_C4F1B43D33CFCD2F.mvfrm
Library\Bee\artifacts\mvdfrm\UnityEngine.UIModule.dll_56C01BD9602342D1.mvfrm
Library\Bee\artifacts\mvdfrm\UnityEngine.UmbraModule.dll_12008B0342FFAF50.mvfrm
Library\Bee\artifacts\mvdfrm\UnityEngine.UNETModule.dll_1F6CD8C080C54395.mvfrm
Library\Bee\artifacts\mvdfrm\UnityEngine.UnityAnalyticsModule.dll_CB51732D66A1A8BE.mvfrm
Library\Bee\artifacts\mvdfrm\UnityEngine.UnityConnectModule.dll_C3DD22C563660AD2.mvfrm
Library\Bee\artifacts\mvdfrm\UnityEngine.UnityCurlModule.dll_7748DDAC40A17798.mvfrm
Library\Bee\artifacts\mvdfrm\UnityEngine.UnityTestProtocolModule.dll_D3F01BEC6FA95806.mvfrm
Library\Bee\artifacts\mvdfrm\UnityEngine.UnityWebRequestAssetBundleModule.dll_A4059271D3CB2A0F.mvfrm
Library\Bee\artifacts\mvdfrm\UnityEngine.UnityWebRequestAudioModule.dll_E51D92E02855C973.mvfrm
Library\Bee\artifacts\mvdfrm\UnityEngine.UnityWebRequestModule.dll_FE67EA0F2D7F7497.mvfrm
Library\Bee\artifacts\mvdfrm\UnityEngine.UnityWebRequestTextureModule.dll_701D7D95134D5BA8.mvfrm
Library\Bee\artifacts\mvdfrm\UnityEngine.UnityWebRequestWWWModule.dll_6C7DE56EF56F05A4.mvfrm
Library\Bee\artifacts\mvdfrm\UnityEngine.VehiclesModule.dll_991AD9A6224F12D4.mvfrm
Library\Bee\artifacts\mvdfrm\UnityEngine.VFXModule.dll_BCE8AD599400730F.mvfrm
Library\Bee\artifacts\mvdfrm\UnityEngine.VideoModule.dll_BC356355786B1F82.mvfrm
Library\Bee\artifacts\mvdfrm\UnityEngine.VirtualTexturingModule.dll_E97E68AC0C7E4DBA.mvfrm
Library\Bee\artifacts\mvdfrm\UnityEngine.VRModule.dll_A992425F01DDC849.mvfrm
Library\Bee\artifacts\mvdfrm\UnityEngine.WindModule.dll_03156BFFC4ECCC85.mvfrm
Library\Bee\artifacts\mvdfrm\UnityEngine.XRModule.dll_DC5105638B1815A7.mvfrm
Library\Bee\artifacts\mvdfrm\UnityEditor.WebGL.Extensions.dll_8540DD234088454F.mvfrm
Library\Bee\artifacts\mvdfrm\UnityEditor.WindowsStandalone.Extensions.dll_B0FFBF22EE7EA6BF.mvfrm