%YAML 1.1
%TAG !u! tag:unity3d.com,2011:
--- !u!78 &1
TagManager:
  serializedVersion: 2
  tags:
  - Rock
  - Ground
  - Boom
  - Platform
  layers:
  - Default
  - TransparentFX
  - Ignore Raycast
  - 
  - Water
  - UI
  - Ground
  - 
  - 
  - 
  - 
  - 
  - 
  - 
  - 
  - 
  - 
  - 
  - 
  - 
  - 
  - 
  - 
  - 
  - 
  - 
  - 
  - 
  - 
  - 
  - 
  - 
  m_SortingLayers:
  - name: Background
    uniqueID: 1115425997
    locked: 0
  - name: Ground
    uniqueID: 2455715971
    locked: 0
  - name: Hero
    uniqueID: 4059412703
    locked: 0
  - name: Front
    uniqueID: 3550638859
    locked: 0
  - name: Default
    uniqueID: 0
    locked: 0
